{
    "_comment": "The track variables used for reconstruction are presented here : https://atlas.web.cern.ch/Atlas/GROUPS/PHYSICS/PUBNOTES/ATL-PHYS-PUB-2021-024/tab_03.png",
    "pt_minimum": 500,
    "abs_eta_maximum": 4,
    "d0_maximum": 3.5,
    "z0_maximum": 5.0,
    "si_hits_minimum": 0,
    "si_shared_maximum": 999,
    "si_holes_maximum": 999,
    "pix_holes_maximum": 999,
    "phi_uncertainty_maximum": 65504,
    "theta_uncertainty_maximum": 65504,
    "q_over_p_uncertainty_maximum": 65504
}

